Prediction of Breeding Values Using MiX99 • qzwslrm
…
#>   Dam = col_double(),
#>   Sex = col_character(),
#>   G = col_double(),
#>   NMPrg = col_double(),
#>   NFPrg = col_double(),
#>   F = col_double(),
#>   Homo = col_double(),
#>   Phen = col_double(),
#>   Res = col_double(),
#>   Polygene = col_double(),
#>   QTL = col_double(),
#>   Final_EBV = col_double()
#> )
tbl_qm_partial
#> # A tibble: 4,995 × 14
#>    Progeny  Sire   Dam Sex       G NMPrg NFPrg     F  Homo  Phen   Res Polygene
#>      <dbl> <dbl> <dbl> <chr> <dbl> <dbl> <dbl> <dbl> <dbl> <dbl> <dbl>    <dbl>
#>  1       1     0     0 M         0     4     6     0 0.701    NA     0        0
#>  2       2     0     0 M         0    14    16     0 0.703    NA     0        0
#>  3       3     0     0 M         0    35    55     0 0.693    NA     0        0
#>  4       4     0     0 M         0     5     5     0 0.710    NA     0        0
#>  5       5     0     0 M         0    12     8     0 0.694    NA     0        0
#>  6       6     0     0 M         0     7    13     0 0.694    NA     0        0
#>  7       7     0     0 M         0    13     7     0 0.704    NA     0        0
#>  8       8     0     0 M         0     3     7     0 0.689    NA     0        0
#>  9       9     0     0 M         0     5     5     0 0.699    NA     0        0
#> 10      10     0     0 M         0    19    41     0 0.697    NA     0        0
#> # … with 4,985 more rows, and 2 more variables: QTL <dbl>, Final_EBV <dbl>

The generation for each record is contained in

summary(tbl_qm_partial$G)
#>    Min. 1st Qu.  Median    Mean 3rd Qu.    Max. 
#>   0.000   2.000   5.000   4.955   8.000  10.000

All animals from the last generation are set to missing in the
phenotype column

tbl_qm_partial[tbl_qm_partial$G == 10, ]
#> # A tibble: 450 × 14
#>    Progeny  Sire   Dam Sex       G NMPrg NFPrg       F  Homo   Phen    Res
#>      <dbl> <dbl> <dbl> <chr> <dbl> <dbl> <dbl>   <dbl> <dbl>  <dbl>  <dbl>
#>  1    4546  1878  2400 F        10     0     0 0.00781 0.688 -0.165 -0.529
#>  2    4547  4452  1757 M        10     0     0 0       0.706 NA      0    
#>  3    4548  2795  3242 M        10     0     0 0.0156  0.720 NA      0    
#>  4    4549  3229  3911 F        10     0     0 0.0268  0.719  0.499 -0.576
#>  5    4550  4545  4265 F        10     0     0 0.0341  0.695  1.91   1.16 
#>  6    4551  4497  2332 F        10     0     0 0.0200  0.717  0.300 -0.340
#>  7    4552  2762  3135 M        10     0     0 0.0127  0.699 NA      0    
#>  8    4553  4330   312 F        10     0     0 0       0.699 -1.11  -1.68 
#>  9    4554  3853  3864 M        10     0     0 0.0189  0.708 NA      0    
#> 10    4555  3423  2754 M        10     0     0 0.0215  0.695 NA      0    
#> # … with 440 more rows, and 3 more variables: Polygene <dbl>, QTL <dbl>,
#> #   Final_EBV <dbl>

All phenotypes of these animals are set to missing.

tbl_qm_partial[tbl_qm_partial$G == 10, ]$Phen <- NA
tbl_qm_partial[tbl_qm_partial$G == 10, ]
#> # A tibble: 450 × 14
#>    Progeny  Sire   Dam Sex       G NMPrg NFPrg       F  Homo  Phen    Res
#>      <dbl> <dbl> <dbl> <chr> <dbl> <dbl> <dbl>   <dbl> <dbl> <dbl>  <dbl>
#>  1    4546  1878  2400 F        10     0     0 0.00781 0.688    NA -0.529
#>  2    4547  4452  1757 M        10     0     0 0       0.706    NA  0    
#>  3    4548  2795  3242 M        10     0     0 0.0156  0.720    NA  0    
#>  4    4549  3229  3911 F        10     0     0 0.0268  0.719    NA -0.576
#>  5    4550  4545  4265 F        10     0     0 0.0341  0.695    NA  1.16 
#>  6    4551  4497  2332 F        10     0     0 0.0200  0.717    NA -0.340
#>  7    4552  2762  3135 M        10     0     0 0.0127  0.699    NA  0    
#>  8    4553  4330   312 F        10     0     0 0       0.699    NA -1.68 
#>  9    4554  3853  3864 M        10     0     0 0.0189  0.708    NA  0    
#> 10    4555  3423  2754 M        10     0     0 0.0215  0.695    NA  0    
#> # … with 440 more rows, and 3 more variables: Polygene <dbl>, QTL <dbl>,
#> #   Final_EBV <dbl>
…
