Development of Package qzwslrm • qzwslrm
…
These files can be read using the function
read_solani()

(tbl_solani_whole <- readr_solani(ps_path = s_ebv_path_whole))
#> Warning: The following named parsers don't match the column names: nprg
#> Warning: 3844 parsing failures.
#> row col  expected    actual                                                                             file
#>   1  -- 4 columns 5 columns '/tmp/RtmpQ6Sl2w/temp_libpath1e0d2c67f2/qzwslrm/extdata/mix99/whole_data/Solani'
#>   2  -- 4 columns 5 columns '/tmp/RtmpQ6Sl2w/temp_libpath1e0d2c67f2/qzwslrm/extdata/mix99/whole_data/Solani'
#>   3  -- 4 columns 5 columns '/tmp/RtmpQ6Sl2w/temp_libpath1e0d2c67f2/qzwslrm/extdata/mix99/whole_data/Solani'
#>   4  -- 4 columns 5 columns '/tmp/RtmpQ6Sl2w/temp_libpath1e0d2c67f2/qzwslrm/extdata/mix99/whole_data/Solani'
#>   6  -- 4 columns 5 columns '/tmp/RtmpQ6Sl2w/temp_libpath1e0d2c67f2/qzwslrm/extdata/mix99/whole_data/Solani'
#> ... ... ......... ......... ................................................................................
#> See problems(...) for more details.
#> # A tibble: 4,995 × 4
#>    animal nrprg trait      ebv
#>     <int> <dbl> <int>    <dbl>
#>  1      1    10     1 -0.214  
#>  2      2    30     1  0.110  
#>  3      3    90     1  0.485  
#>  4      4    10     1 -0.154  
#>  5      5    20     1  0.0766 
#>  6      6    20     1 -0.135  
#>  7      7    20     1 -0.0928 
#>  8      8    10     1 -0.00596
#>  9      9    10     1 -0.0130 
#> 10     10    60     1  0.181  
#> # … with 4,985 more rows

The same can be done with the partial data

(tbl_solani_partial <- readr_solani(ps_path = s_ebv_path_partial))
#> Warning: The following named parsers don't match the column names: nprg
#> Warning: 3839 parsing failures.
#> row col  expected    actual                                                                               file
#>   1  -- 4 columns 5 columns '/tmp/RtmpQ6Sl2w/temp_libpath1e0d2c67f2/qzwslrm/extdata/mix99/partial_data/Solani'
#>   2  -- 4 columns 5 columns '/tmp/RtmpQ6Sl2w/temp_libpath1e0d2c67f2/qzwslrm/extdata/mix99/partial_data/Solani'
#>   3  -- 4 columns 5 columns '/tmp/RtmpQ6Sl2w/temp_libpath1e0d2c67f2/qzwslrm/extdata/mix99/partial_data/Solani'
#>   4  -- 4 columns 5 columns '/tmp/RtmpQ6Sl2w/temp_libpath1e0d2c67f2/qzwslrm/extdata/mix99/partial_data/Solani'
#>   6  -- 4 columns 5 columns '/tmp/RtmpQ6Sl2w/temp_libpath1e0d2c67f2/qzwslrm/extdata/mix99/partial_data/Solani'
#> ... ... ......... ......... ..................................................................................
#> See problems(...) for more details.
#> # A tibble: 4,995 × 4
#>    animal nrprg trait      ebv
#>     <int> <dbl> <int>    <dbl>
#>  1      1    10     1 -0.215  
#>  2      2    30     1  0.129  
#>  3      3    90     1  0.463  
#>  4      4    10     1 -0.154  
#>  5      5    20     1  0.0779 
#>  6      6    20     1 -0.136  
#>  7      7    20     1 -0.0913 
#>  8      8    10     1 -0.00620
#>  9      9    10     1 -0.0198 
#> 10     10    60     1  0.170  
#> # … with 4,985 more rows
…
The input files included in the package can be obtained and read
via

sexdf_csv <- qzwslrm_example_input("csv")
tbl_ebv_csv <- readr_ebv(ps_path = sexdf_csv, ps_format = "csv", 
                     ps_animal_col_name = "animal", ps_ebv_col_name = "ebv")
#> Rows: 4995 Columns: 4
#> ── Column specification ────────────────────────────────────────────────────────
#> Delimiter: ","
#> dbl (4): animal, nrprg, trait, ebv
#> 
#> ℹ Use `spec()` to retrieve the full column specification for this data.
#> ℹ Specify the column types or set `show_col_types = FALSE` to quiet this message.
tbl_ebv_csv
#> # A tibble: 4,995 × 2
#>    animal      ebv
#>     <dbl>    <dbl>
#>  1      1 -0.215  
#>  2      2  0.129  
#>  3      3  0.463  
#>  4      4 -0.154  
#>  5      5  0.0779 
#>  6      6 -0.136  
#>  7      7 -0.0913 
#>  8      8 -0.00620
#>  9      9 -0.0198 
#> 10     10  0.170  
#> # … with 4,985 more rows
Testing the input format “table”

sexdf_delim <- qzwslrm_example_input(ps_data_format = "delim")
tbl_ebv_table <- readr_ebv(ps_path = sexdf_delim, ps_format = "table",
                           ps_animal_col_name = "animal", ps_ebv_col_name = "ebv")
#> 
#> ── Column specification ────────────────────────────────────────────────────────
#> cols(
#>   animal = col_double(),
#>   nrprg = col_double(),
#>   trait = col_double(),
#>   ebv = col_double()
#> )
tbl_ebv_table
#> # A tibble: 4,995 × 2
#>    animal      ebv
#>     <dbl>    <dbl>
#>  1      1 -0.215  
#>  2      2  0.129  
#>  3      3  0.463  
#>  4      4 -0.154  
#>  5      5  0.0779 
#>  6      6 -0.136  
#>  7      7 -0.0913 
#>  8      8 -0.00620
#>  9      9 -0.0198 
#> 10     10  0.170  
#> # … with 4,985 more rows
…
